<?xml version="1.0" encoding="utf-8"?>
<!-- Generator: Adobe Illustrator 19.1.0, SVG Export Plug-In . SVG Version: 6.00 Build 0)  -->
<svg version="1.1" id="Layer_1" xmlns="http://www.w3.org/2000/svg" xmlns:xlink="http://www.w3.org/1999/xlink" x="0px" y="0px"
	 viewBox="0 0 26 25" style="enable-background:new 0 0 26 25;" xml:space="preserve">
<style type="text/css">
	.st0{fill:none;}
	.st1{fill:#333333;}
</style>
<rect class="st0" width="26" height="26"/>
<path class="st1" d="M3,0h18c1.7,0,3,1.3,3,3v10c0,0.3-0.1,0.6-0.2,0.9l-2.1-1.8c-0.5-0.5-1.4-0.7-2.1-0.4L16,7.9l7-5.4L12,8.4
	L1,2.5l7,5.4l-5.8,5.9l7-5l2.8,1.8l2.8-1.8l4.5,3.2c-0.5,0.4-0.7,0.9-0.7,1.5v1c-1.1,0.2-2.5,0.6-3.7,1.4H3c-1.7,0-3-1.3-3-3V3
	C0,1.3,1.3,0,3,0z"/>
<g>
	<path class="st1" d="M20,13.5v2.4c-3.2,0-7.5,1.6-7.5,9.6c1.4-5.1,3.3-5.5,7.5-5.5v2.5c0,0.2,0.1,0.4,0.3,0.4c0.1,0,0.1,0,0.2,0
		c0.1,0,0.2,0,0.3-0.1l5-4.5c0.2-0.2,0.2-0.5,0-0.7l-5-4.5c-0.1-0.1-0.3-0.2-0.5-0.1C20.1,13.2,20,13.3,20,13.5z"/>
</g>
</svg>
