<?xml version="1.0" encoding="utf-8"?>
<!-- Generator: Adobe Illustrator 19.1.0, SVG Export Plug-In . SVG Version: 6.00 Build 0)  -->
<svg version="1.1" id="Layer_1" xmlns="http://www.w3.org/2000/svg" xmlns:xlink="http://www.w3.org/1999/xlink" x="0px" y="0px"
	 viewBox="0 0 13.2 12.6" style="enable-background:new 0 0 13.2 12.6;" xml:space="preserve">
<style type="text/css">
	.st0{fill-rule:evenodd;clip-rule:evenodd;}
</style>
<polygon class="st0" points="0.2,4.1 3,4.1 3,12.6 0.2,12.6 0.2,4.1 "/>
<path class="st0" d="M10.3,8.2c0-1.4-0.6-2.1-1.4-2.1C8.1,6.2,7.4,6.7,7.4,8v4.6H4.5V4.1h2.8v1.1c0.5-0.8,1.3-1.3,2.5-1.3
	c2.7,0,3.3,2.1,3.3,3.9v4.8h-2.8V8.2L10.3,8.2z"/>
<path class="st0" d="M1.6,0c0.9,0,1.6,0.7,1.6,1.5C3.2,2.3,2.5,3,1.6,3C0.7,3,0,2.3,0,1.5C0,0.7,0.7,0,1.6,0L1.6,0z"/>
</svg>
