<?xml version="1.0" encoding="utf-8"?>
<!-- Generator: Adobe Illustrator 19.1.0, SVG Export Plug-In . SVG Version: 6.00 Build 0)  -->
<svg version="1.1" id="Icons" xmlns="http://www.w3.org/2000/svg" xmlns:xlink="http://www.w3.org/1999/xlink" x="0px" y="0px"
	 viewBox="0 0 15.6 16" style="enable-background:new 0 0 15.6 16;" xml:space="preserve">
<g id="New_Symbol_38">
	<path d="M15.3,12.2c-0.5-0.7-2-1.2-3.6-1.8c-1.6-0.6-1.9-0.9-1.9-0.9l0-1.5c0,0,0.6-0.4,0.8-1.8c0.4,0.1,0.7-0.5,0.8-0.9
		c0-0.3-0.1-1.2-0.5-1.2c0.1-0.7,0.2-1.3,0.1-1.6C10.8,1.3,9.6,0,7.8,0s-3,1.3-3.1,2.5c0,0.3,0,0.9,0.1,1.6C4.4,4,4.3,4.9,4.3,5.2
		c0,0.3,0.4,1,0.8,0.9C5.3,7.5,5.8,8,5.8,8l0,1.5c0,0-0.4,0.2-1.9,0.9c-1.6,0.6-3.1,1.1-3.6,1.8C-0.1,12.8,0,16,0,16h7.8h7.8
		C15.6,16,15.7,12.8,15.3,12.2z M12.6,14h-4v-1h4V14z"/>
</g>
</svg>
