<?xml version="1.0" encoding="utf-8"?>
<!-- Generator: Adobe Illustrator 19.1.0, SVG Export Plug-In . SVG Version: 6.00 Build 0)  -->
<svg version="1.1" id="Слой_1" xmlns="http://www.w3.org/2000/svg" xmlns:xlink="http://www.w3.org/1999/xlink" x="0px" y="0px"
	 viewBox="0 0 22 14" style="enable-background:new 0 0 22 14;" xml:space="preserve">
<style type="text/css">
	.st0{fill-rule:evenodd;clip-rule:evenodd;fill:#020202;}
</style>
<path class="st0" d="M7,6v2.4h4c-0.2,1-1.2,3-4,3c-2.4,0-4.3-2-4.3-4.4c0-2.4,1.9-4.4,4.3-4.4c1.4,0,2.3,0.6,2.8,1.1l1.9-1.8
	C10.5,0.7,8.9,0,7,0C3.1,0,0,3.1,0,7c0,3.9,3.1,7,7,7c4,0,6.7-2.8,6.7-6.8c0-0.5-0.1-0.8-0.1-1.2H7L7,6L7,6z M7,6"/>
<polyline class="st0" points="22,6 20,6 20,4 18,4 18,6 16,6 16,8 18,8 18,10 20,10 20,8 22,8 "/>
</svg>
