<?xml version="1.0" encoding="utf-8"?>
<!-- Generator: Adobe Illustrator 19.1.0, SVG Export Plug-In . SVG Version: 6.00 Build 0)  -->
<svg version="1.1" id="Icons" xmlns="http://www.w3.org/2000/svg" xmlns:xlink="http://www.w3.org/1999/xlink" x="0px" y="0px"
	 viewBox="0 0 16 13" style="enable-background:new 0 0 16 13;" xml:space="preserve">
<g id="New_Symbol_51">
	<g>
		<g>
			<rect x="11" y="9" width="5" height="4"/>
		</g>
		<g>
			<polygon points="15,9 14,9 14,8 13,8 13,9 12,9 12,7 15,7 			"/>
		</g>
	</g>
	<g>
		<path d="M10,8h1V7V6h4V3c0-0.5-0.5-1-1-1H8C7.5,2,6.7,1.7,6.3,1.2L5.9,0.8C5.5,0.3,4.8,0,4.2,0H1C0.5,0,0,0.5,0,1v10
			c0,0.5,0.5,1,1,1h9V9V8z"/>
	</g>
</g>
</svg>
